// Jest Snapshot v1, https://goo.gl/fbAQLP

exports[`#getSession it matches the snapshot 1`] = `
Object {
  "method": "GET",
  "url": "/login",
}
`;

exports[`#login it matches the snapshot 1`] = `
Object {
  "body": Object {
    "email": undefined,
    "password": undefined,
  },
  "method": "POST",
  "url": "/login",
}
`;

exports[`#logout it matches the snapshot 1`] = `
Object {
  "method": "DELETE",
  "url": "/login",
}
`;

exports[`#register it matches the snapshot 1`] = `
Object {
  "body": Object {
    "email": undefined,
    "name": undefined,
    "password": undefined,
  },
  "method": "POST",
  "url": "/register",
}
`;
